Enter the first polynomial or q: Enter the second polynomial:   12399 - 234234390x1 - 234234389x2 - 234234388x3 - 234234387x4 + 19452386x5 + 19452385x6 + 19452357x7 + 19452358x8 + 19452359x9 + 19452360x10 - 234234361x11 - 234234362x12 - 234234363x13 + 19452364x14 + 19452365x15 + 19452366x16 + 19452367x17 + 19452368x18 - 234234369x19
+ -100 + 90x1 + 59x2 + 58x3 + 57x4 - 56x5 - 55x6 - 57x7 - 58x8 - 59x9 - 40x10 + 41x11 + 42x12 - 44x14 - 45x15 - 46x16 - 47x17 - 48x18 + 49x19
--------------------------------------------------
12299 - 234234300x1 - 234234330x2 - 234234330x3 - 234234330x4 + 19452330x5 + 19452330x6 + 19452300x7 + 19452300x8 + 19452300x9 + 19452320x10 - 234234320x11 - 234234320x12 - 234234363x13 + 19452320x14 + 19452320x15 + 19452320x16 + 19452320x17 + 19452320x18 - 234234320x19

Enter the first polynomial or q: Bye!
